ACK 0 0 r S B 0 1 7 8 0 0 0 C 0 0 1 1 4 4 0 0 3 8 6 D 0 0 0 0 0 0 0 0 0 0 0 0 0 0 0 0 0 0 0 0 0 0 0 0 2 0 C 5 2 1 0 E 0 1 7 2 0 7 7 0 E 8 F E 2 8 3 E 6 F B F C 3 F 9 7 7 E B 2 E 6 9 3 0 2 E 0 0 1 6 0 D E 8 0 0 0 0 0 0 0 0 4 3 A 9 C C A 8 4 9 8 4 0 0 2 B 0 1 5 2 9 9 9 5 0 0 1 0 F F B 7 1 F 4 9 C F D A 6 6 5 7 4 6 D D 2 F 5 D 6 9 A 8 A 7 3 3 0 0 0 C 0 0 0 0 4 3 F 8 3 8 6 D 0 0 0 0 0 0 0 0 0 0 0 0 0 0 0 0 0 0 0 0 0 0 0 0 5 7 0 A 4 1 4 C F 7 F 7 4 0 B 6 E 8 F E 2 8 3 E 6 F B F C 3 F 9 7 7 E B 2 E 6 8 ETX B 3 

size 253









ENQ 0 0 r S B 0 6 % M W 5 0 0 3 C EOT A A 

size 19