<?xml version="1.0" ?><!DOCTYPE svg  PUBLIC '-//W3C//DTD SVG 1.0//EN'  'http://www.w3.org/TR/2001/REC-SVG-20010904/DTD/svg10.dtd'><svg height="128px" style="shape-rendering:geometricPrecision; text-rendering:geometricPrecision; image-rendering:optimizeQuality; fill-rule:evenodd; clip-rule:evenodd" version="1.0" viewBox="0 0 54763 81299" width="86px" xml:space="preserve" xmlns="http://www.w3.org/2000/svg" xmlns:xlink="http://www.w3.org/1999/xlink"><defs><style type="text/css">
   <![CDATA[
    .fil0 {fill:#f6453b}
   ]]>
  </style></defs><g id="Layer_x0020_1"><path class="fil0" d="M27381 0c15123,0 27382,12259 27382,27381 0,4412 -1045,8578 -2898,12269l-24484 41649 -24484 -41649c-1852,-3691 -2897,-7857 -2897,-12269 0,-15122 12259,-27381 27381,-27381zm0 12735c8089,0 14647,6557 14647,14646 0,8089 -6558,14647 -14647,14647 -8089,0 -14646,-6558 -14646,-14647 0,-8089 6557,-14646 14646,-14646z"/></g></svg>