^C:\USERS\KYLEE\PROJECT\KYLEE_PERSON\04.EPANET\99.DOC\EPANET-DEV-MASTER(20180621 GIT)\BUIL\CMAKEFILES\3.12.0-RC1\COMPILERIDCXX\CMAKECXXCOMPILERID.CPP
C:\PROGRAM FILES (X86)\MICROSOFT VISUAL STUDIO\2017\COMMUNITY\VC\TOOLS\MSVC\14.14.26428\BIN\HOSTX86\X64\1042\CLUI.DLL
C:\WINDOWS\GLOBALIZATION\SORTING\SORTDEFAULT.NLS
C:\WINDOWS\SYSTEM32\TZRES.DLL
